{
    "depends": [
        "App::Lorea:ver<0.2.0>:auth<cpan:JJATRIA>",
        "Cro::WebApp:ver<0.8.8>:auth<zef:cro>",
        "DB::Pg:ver<1.1>:auth<cpan:CTILMES>",
        "HTTP::Tiny:ver<0.2.4>:auth<zef:jjatria>",
        "IO::Socket::SSL:ver<0.0.2>:auth<github:sergot>",
        "MIME::Base64:ver<1.2.3>:auth<zef:raku-community-modules>",
        "TOML::Thumb:ver<0.2>:auth<zef:JRaspass>"
    ],
    "license": "Artistic-2.0",
    "name": "Raku Land"
}
